{
	"wcid": 37478,    "_comment": "Spectral Staff(spectralstaff)",
	"weenieType": 35,    "_comment2": "Caster",
	"stringStats":[
		{"key":   1,    "value": "Spectral Staff",    "_comment": "Name"}
	],
	"intStats":[
		{"key":  93,    "value":       3092,    "_comment": "PhysicsState = Ethereal_PS, Ignore_Collisions_PS, Gravity_PS, Lighting_On_PS"},
		{"key":   1,    "value":      32768,    "_comment": "ItemType = Type_Caster"},
		{"key":  16,    "value":    6291464,    "_comment": "ItemUseable = Useable_Source_Contained_Target_Remote_Never_Walk"},
		{"key": 158,    "value":          7,    "_comment": "WieldRequirements = level"},
		{"key":  94,    "value":         16,    "_comment": "TargetType = Type_Creature"},
		{"key":  18,    "value":          1,    "_comment": "UiEffects = UI_Effect_Magical"},
		{"key":   9,    "value":   16777216,    "_comment": "ValidLocations = Held_Loc"},
		{"key":   5,    "value":         50,    "_comment": "EncumbranceVal"},
		{"key": 263,    "value":          2,    "_comment": "ResistanceModifierType = piercing"},
		{"key": 160,    "value":        160,    "_comment": "WieldDifficulty"},
		{"key":  33,    "value":         -1,    "_comment": "Bonded = Slippery_BondedStatus"},
		{"key": 106,    "value":        475,    "_comment": "ItemSpellcraft"},
		{"key":  98,    "value": 1485832701,    "_comment": "CreationTimestamp"},
		{"key": 114,    "value":          0,    "_comment": "Attuned = Normal_AttunedStatus"},
		{"key":  19,    "value":          0,    "_comment": "Value"},
		{"key": 166,    "value":         77,    "_comment": "SlayerCreatureType = Ghost"},
		{"key": 107,    "value":       2682,    "_comment": "ItemCurMana"},
		{"key": 268,    "value":     258850,    "_comment": "RemainingLifespan"},
		{"key": 267,    "value":     259200,    "_comment": "Lifespan"},
		{"key": 108,    "value":       2700,    "_comment": "ItemMaxMana"},
		{"key":  45,    "value":          2,    "_comment": "DamageType = Pierce_Damage_Type"},
		{"key": 159,    "value":          1,    "_comment": "WieldSkilltype = Axe"}
	],
	"boolStats":[
		{"key":  22,    "value":          1,    "_comment": "Inscribable"},
		{"key":  99,    "value":          0,    "_comment": "Ivoryable"},
		{"key":  69,    "value":          0,    "_comment": "IsSellable"}
	],
	"floatStats":[
		{"key":  39,    "value": 0.69999999,    "_comment": "DefaultScale"},
		{"key":  76,    "value": 0.69999999,    "_comment": "Translucency"},
		{"key": 152,    "value": 1.27000000,    "_comment": "ElementalDamageMod"},
		{"key": 144,    "value": 0.25500001,    "_comment": "ManaConversionMod"},
		{"key": 136,    "value": 1.00000000,    "_comment": "CriticalMultiplier"},
		{"key": 147,    "value": 1.00000000,    "_comment": "CriticalFrequency"},
		{"key": 157,    "value": 1.00000000,    "_comment": "ResistanceModifier"},
		{"key":  29,    "value": 1.37000000,    "_comment": "WeaponDefense"},
		{"key":   5,    "value": -0.05000000,    "_comment": "ManaRate"}
	],
	"didStats":[
		{"key":   6,    "value":   67111919,    "_comment": "PaletteBase"},
		{"key":   3,    "value":  536870932,    "_comment": "SoundTable"},
		{"key":  22,    "value":  872415275,    "_comment": "PhysicsEffectTable"},
		{"key":   1,    "value":   33560575,    "_comment": "Setup"},
		{"key":   8,    "value":  100675639,    "_comment": "Icon"},
		{"key":  28,    "value":       2132,    "_comment": "Spell = The Spike"},
		{"key":  52,    "value":  100689404,    "_comment": "IconUnderlay"}
	],
	"spellbook": [
		{
			"key": 2132,    "_comment": "The Spike",
			"value": {
				"casting_likelihood": 2.0000
			}
		},
		{
			"key": 2117,    "_comment": "Aura of Mystic's Blessing",
			"value": {
				"casting_likelihood": 2.0000
			}
		},
		{
			"key": 2581,    "_comment": "Minor Focus",
			"value": {
				"casting_likelihood": 2.0000
			}
		},
		{
			"key": 2584,    "_comment": "Minor Willpower",
			"value": {
				"casting_likelihood": 2.0000
			}
		},
		{
			"key": 2534,    "_comment": "Major War Magic Aptitude",
			"value": {
				"casting_likelihood": 2.0000
			}
		},
		{
			"key": 2101,    "_comment": "Aura of Cragstone's Will",
			"value": {
				"casting_likelihood": 2.0000
			}
		},
		{
			"key": 3259,    "_comment": "Aura of Infected Spirit Caress",
			"value": {
				"casting_likelihood": 2.0000
			}
		}
	]
}