{
	"wcid": 40517,    "_comment": "Olthoibane Sword of Lost Light(olthoibaneswordoflostlight)",
	"weenieType": 6,    "_comment2": "MeleeWeapon",
	"stringStats":[
		{"key":   1,    "value": "Olthoibane Sword of Lost Light",    "_comment": "Name"}
	],
	"intStats":[
		{"key":  93,    "value":       1044,    "_comment": "PhysicsState = Ethereal_PS, Ignore_Collisions_PS, Gravity_PS"},
		{"key":   1,    "value":          1,    "_comment": "ItemType = Type_Melee_Weapon"},
		{"key":  19,    "value":      17500,    "_comment": "Value"},
		{"key":  16,    "value":          1,    "_comment": "ItemUseable = Useable_No"},
		{"key":  18,    "value":          1,    "_comment": "UiEffects = UI_Effect_Magical"},
		{"key":  51,    "value":          1,    "_comment": "CombatUse = Combat_Use_Melee"},
		{"key":   9,    "value":    1048576,    "_comment": "ValidLocations = Melee_Weapon_Loc"},
		{"key":   5,    "value":        450,    "_comment": "EncumbranceVal"},
		{"key": 151,    "value":          2,    "_comment": "HookType = Wall_HookTypeEnum"},
		{"key": 160,    "value":        370,    "_comment": "WieldDifficulty"},
		{"key":  33,    "value":          1,    "_comment": "Bonded = Bonded_BondedStatus"},
		{"key": 106,    "value":        460,    "_comment": "ItemSpellcraft"},
		{"key": 353,    "value":          2,    "_comment": "WeaponType = Sword_WeaponType"},
		{"key": 107,    "value":       1946,    "_comment": "ItemCurMana"},
		{"key": 166,    "value":          1,    "_comment": "SlayerCreatureType = Olthoi"},
		{"key":  44,    "value":         72,    "_comment": "Damage"},
		{"key": 108,    "value":       2000,    "_comment": "ItemMaxMana"},
		{"key": 158,    "value":          2,    "_comment": "WieldRequirements = baseSkill"},
		{"key":  47,    "value":          2,    "_comment": "AttackType = Thrust_AttackType"},
		{"key": 159,    "value":         11,    "_comment": "WieldSkilltype = HeavyWeapons"},
		{"key":  45,    "value":          2,    "_comment": "DamageType = Pierce_Damage_Type"},
		{"key":  49,    "value":         30,    "_comment": "WeaponTime"},
		{"key":  48,    "value":         44,    "_comment": "WeaponSkill = HeavyWeapons"}
	],
	"boolStats":[
		{"key":  22,    "value":          1,    "_comment": "Inscribable"},
		{"key":  85,    "value":          1,    "_comment": "AppraisalHasAllowedWielder"},
		{"key":  69,    "value":          0,    "_comment": "IsSellable"}
	],
	"floatStats":[
		{"key":  39,    "value": 1.29999995,    "_comment": "DefaultScale"},
		{"key": 147,    "value": 1.00000000,    "_comment": "CriticalFrequency"},
		{"key":   5,    "value": -0.03300000,    "_comment": "ManaRate"},
		{"key":  29,    "value": 1.18000000,    "_comment": "WeaponDefense"},
		{"key":  22,    "value": 0.50000000,    "_comment": "DamageVariance"},
		{"key":  63,    "value": 1.00000000,    "_comment": "DamageMod"},
		{"key":  21,    "value": 0.00000000,    "_comment": "WeaponLength"},
		{"key":  26,    "value": 0.00000000,    "_comment": "MaximumVelocity"},
		{"key":  62,    "value": 1.18000000,    "_comment": "WeaponOffense"}
	],
	"didStats":[
		{"key":   3,    "value":  536870932,    "_comment": "SoundTable"},
		{"key":  22,    "value":  872415275,    "_comment": "PhysicsEffectTable"},
		{"key":   1,    "value":   33560709,    "_comment": "Setup"},
		{"key":   8,    "value":  100674513,    "_comment": "Icon"}
	],
	"spellbook": [
		{
			"key": 2116,    "_comment": "Aura of Atlan's Alacrity",
			"value": {
				"casting_likelihood": 2.0000
			}
		},
		{
			"key": 2059,    "_comment": "Honed Control",
			"value": {
				"casting_likelihood": 2.0000
			}
		},
		{
			"key": 4624,    "_comment": "Incantation of Sword Mastery Self",
			"value": {
				"casting_likelihood": 2.0000
			}
		},
		{
			"key": 2087,    "_comment": "Might of the Lugians",
			"value": {
				"casting_likelihood": 2.0000
			}
		},
		{
			"key": 4712,    "_comment": "Epic Sword Aptitude",
			"value": {
				"casting_likelihood": 2.0000
			}
		},
		{
			"key": 4395,    "_comment": "Aura of Incantation of Blood Drinker Self",
			"value": {
				"casting_likelihood": 2.0000
			}
		},
		{
			"key": 2101,    "_comment": "Aura of Cragstone's Will",
			"value": {
				"casting_likelihood": 2.0000
			}
		},
		{
			"key": 2106,    "_comment": "Aura of Elysa's Sight",
			"value": {
				"casting_likelihood": 2.0000
			}
		}
	]
}