{
  "wcid": 742801,
  "weenieType": 2,
  "boolStats": [
    {
      "key": 11,
      "value": 1
    },
    {
      "key": 13,
      "value": 1
    },
    {
      "key": 14,
      "value": 1
    },
    {
      "key": 19,
      "value": 1
    },
    {
      "key": 22,
      "value": 1
    }
  ],
  "intStats": [
    {
      "key": 1,
      "value": 4
    },
    {
      "key": 3,
      "value": 61
    },
    {
      "key": 4,
      "value": 56
    },
    {
      "key": 5,
      "value": 57
    },
    {
      "key": 8,
      "value": 38
    },
    {
      "key": 9,
      "value": 10
    },
    {
      "key": 16,
      "value": 1
    },
    {
      "key": 19,
      "value": 2449
    },
    {
      "key": 27,
      "value": 1
    },
    {
      "key": 28,
      "value": 0
    },
    {
      "key": 53,
      "value": 101
    },
    {
      "key": 93,
      "value": 1044
    },
    {
      "key": 106,
      "value": 155
    },
    {
      "key": 107,
      "value": 317
    },
    {
      "key": 108,
      "value": 467
    },
    {
      "key": 109,
      "value": 155
    },
    {
      "key": 110,
      "value": 1
    },
    {
      "key": 9007,
      "value": 2
    }
  ],
  "didStats": [
    {
      "key": 1,
      "value": 33554883
    },
    {
      "key": 3,
      "value": 536870932
    },
    {
      "key": 6,
      "value": 67108990
    },
    {
      "key": 7,
      "value": 268436011
    },
    {
      "key": 8,
      "value": 100689182
    },
    {
      "key": 22,
      "value": 872415275
    },
    {
      "key": 36,
      "value": 234881046
    }
  ],
  "floatStats": [
    {
      "key": 5,
      "value": -0.033
    },
    {
      "key": 12,
      "value": 0
    },
    {
      "key": 13,
      "value": 0.8
    },
    {
      "key": 14,
      "value": 0.8
    },
    {
      "key": 15,
      "value": 1
    },
    {
      "key": 16,
      "value": 0.2
    },
    {
      "key": 17,
      "value": 0.2
    },
    {
      "key": 18,
      "value": 0.1
    },
    {
      "key": 19,
      "value": 0.2
    },
    {
      "key": 165,
      "value": 1
    }
  ],
  "stringStats": [
    {
      "key": 1,
      "value": "Aerlinthe Patron Shirt"
    },
    {
      "key": 7,
      "value": "My patron went to Aerlinthe, and all I got was this lousy shirt."
    },
    {
      "key": 8,
      "value": "-"
    },
    {
      "key": 15,
      "value": "A shirt purchased on Aerlinthe Island."
    },
    {
      "key": 16,
      "value": "A shirt purchased on Aerlinthe Island."
    }
  ],"spellBook": [
    {
      "key": 1317,
      "value": {
        "casting_likelihood": 2
      }
    },
    {
      "key": 2578,
      "value": {
        "casting_likelihood": 2
      }
    },
    {
      "key": 2661,
      "value": {
        "casting_likelihood": 2
      }
    }
  ]
}